1,Bulbasaur,Grass,Poison,45,49,49,65,65,45,1,False,7,69,chlorophyll,overgrow
2,Ivysaur,Grass,Poison,60,62,63,80,80,60,1,False,10,130,chlorophyll,overgrow
3,Venusaur,Grass,Poison,80,82,83,100,100,80,1,False,20,1000,chlorophyll,overgrow
4,Charmander,Fire,,39,52,43,60,50,65,1,False,6,85,solar-power,blaze
5,Charmeleon,Fire,,58,64,58,80,65,80,1,False,11,190,solar-power,blaze
6,Charizard,Fire,Flying,78,84,78,109,85,100,1,False,17,905,solar-power,blaze
7,Squirtle,Water,,44,48,65,50,64,43,1,False,5,90,rain-dish,torrent
8,Wartortle,Water,,59,63,80,65,80,58,1,False,10,225,rain-dish,torrent
9,Blastoise,Water,,79,83,100,85,105,78,1,False,16,855,rain-dish,torrent
10,Caterpie,Bug,,45,30,35,20,20,45,1,False,3,29,run-away,shield-dust
11,Metapod,Bug,,50,20,55,25,25,30,1,False,7,99,shed-skin,
12,Butterfree,Bug,Flying,60,45,50,90,80,70,1,False,11,320,tinted-lens,compound-eyes
13,Weedle,Bug,Poison,40,35,30,20,20,50,1,False,3,32,run-away,shield-dust
14,Kakuna,Bug,Poison,45,25,50,25,25,35,1,False,6,100,shed-skin,
15,Beedrill,Bug,Poison,65,90,40,45,80,75,1,False,10,295,sniper,swarm
16,Pidgey,Normal,Flying,40,45,40,35,35,56,1,False,3,18,big-pecks,tangled-feet
17,Pidgeotto,Normal,Flying,63,60,55,50,50,71,1,False,11,300,big-pecks,tangled-feet
18,Pidgeot,Normal,Flying,83,80,75,70,70,101,1,False,15,395,big-pecks,tangled-feet
19,Rattata,Normal,,30,56,35,25,35,72,1,False,3,35,hustle,guts
20,Raticate,Normal,,55,81,60,50,70,97,1,False,7,185,hustle,guts
21,Spearow,Normal,Flying,40,60,30,31,31,70,1,False,3,20,sniper,keen-eye
22,Fearow,Normal,Flying,65,90,65,61,61,100,1,False,12,380,sniper,keen-eye
23,Ekans,Poison,,35,60,44,40,54,55,1,False,20,69,unnerve,shed-skin
24,Arbok,Poison,,60,85,69,65,79,80,1,False,35,650,unnerve,shed-skin
25,Pikachu,Electric,,35,55,40,50,50,90,1,False,4,60,lightning-rod,static
26,Raichu,Electric,,60,90,55,90,80,110,1,False,8,300,lightning-rod,static
27,Sandshrew,Ground,,50,75,85,20,30,40,1,False,6,120,sand-rush,sand-veil
28,Sandslash,Ground,,75,100,110,45,55,65,1,False,10,295,sand-rush,sand-veil
29,Nidoran♀,Poison,,55,47,52,40,40,41,1,False,4,70,hustle,rivalry
30,Nidorina,Poison,,70,62,67,55,55,56,1,False,8,200,hustle,rivalry
31,Nidoqueen,Poison,Ground,90,92,87,75,85,76,1,False,13,600,sheer-force,rivalry
32,Nidoran♂,Poison,,46,57,40,40,40,50,1,False,5,90,hustle,rivalry
33,Nidorino,Poison,,61,72,57,55,55,65,1,False,9,195,hustle,rivalry
34,Nidoking,Poison,Ground,81,102,77,85,75,85,1,False,14,620,sheer-force,rivalry
35,Clefairy,Fairy,,70,45,48,60,65,35,1,False,6,75,friend-guard,magic-guard
36,Clefable,Fairy,,95,70,73,95,90,60,1,False,13,400,unaware,magic-guard
37,Vulpix,Fire,,38,41,40,50,65,65,1,False,6,99,drought,flash-fire
38,Ninetales,Fire,,73,76,75,81,100,100,1,False,11,199,drought,flash-fire
39,Jigglypuff,Normal,Fairy,115,45,20,45,25,20,1,False,5,55,friend-guard,competitive
40,Wigglytuff,Normal,Fairy,140,70,45,85,50,45,1,False,10,120,frisk,competitive
41,Zubat,Poison,Flying,40,45,35,30,40,55,1,False,8,75,infiltrator,inner-focus
42,Golbat,Poison,Flying,75,80,70,65,75,90,1,False,16,550,infiltrator,inner-focus
43,Oddish,Grass,Poison,45,50,55,75,65,30,1,False,5,54,run-away,chlorophyll
44,Gloom,Grass,Poison,60,65,70,85,75,40,1,False,8,86,stench,chlorophyll
45,Vileplume,Grass,Poison,75,80,85,110,90,50,1,False,12,186,effect-spore,chlorophyll
46,Paras,Bug,Grass,35,70,55,45,55,25,1,False,3,54,damp,dry-skin
47,Parasect,Bug,Grass,60,95,80,60,80,30,1,False,10,295,damp,dry-skin
48,Venonat,Bug,Poison,60,55,50,40,55,45,1,False,10,300,run-away,tinted-lens
49,Venomoth,Bug,Poison,70,65,60,90,75,90,1,False,15,125,wonder-skin,tinted-lens
50,Diglett,Ground,,10,55,25,35,45,95,1,False,2,8,sand-force,arena-trap
51,Dugtrio,Ground,,35,80,50,50,70,120,1,False,7,333,sand-force,arena-trap
52,Meowth,Normal,,40,45,35,40,40,90,1,False,4,42,unnerve,technician
53,Persian,Normal,,65,70,60,65,65,115,1,False,10,320,unnerve,technician
54,Psyduck,Water,,50,52,48,65,50,55,1,False,8,196,swift-swim,cloud-nine
55,Golduck,Water,,80,82,78,95,80,85,1,False,17,766,swift-swim,cloud-nine
56,Mankey,Fighting,,40,80,35,35,45,70,1,False,5,280,defiant,anger-point
57,Primeape,Fighting,,65,105,60,60,70,95,1,False,10,320,defiant,anger-point
58,Growlithe,Fire,,55,70,45,70,50,60,1,False,7,190,justified,flash-fire
59,Arcanine,Fire,,90,110,80,100,80,95,1,False,19,1550,justified,flash-fire
60,Poliwag,Water,,40,50,40,40,40,90,1,False,6,124,swift-swim,damp
61,Poliwhirl,Water,,65,65,65,50,50,90,1,False,10,200,swift-swim,damp
62,Poliwrath,Water,Fighting,90,95,95,70,90,70,1,False,13,540,swift-swim,damp
63,Abra,Psychic,,25,20,15,105,55,90,1,False,9,195,magic-guard,inner-focus
64,Kadabra,Psychic,,40,35,30,120,70,105,1,False,13,565,magic-guard,inner-focus
65,Alakazam,Psychic,,55,50,45,135,95,120,1,False,15,480,magic-guard,inner-focus
66,Machop,Fighting,,70,80,50,35,35,35,1,False,8,195,steadfast,no-guard
67,Machoke,Fighting,,80,100,70,50,60,45,1,False,15,705,steadfast,no-guard
68,Machamp,Fighting,,90,130,80,65,85,55,1,False,16,1300,steadfast,no-guard
69,Bellsprout,Grass,Poison,50,75,35,70,30,40,1,False,7,40,gluttony,chlorophyll
70,Weepinbell,Grass,Poison,65,90,50,85,45,55,1,False,10,64,gluttony,chlorophyll
71,Victreebel,Grass,Poison,80,105,65,100,70,70,1,False,17,155,gluttony,chlorophyll
72,Tentacool,Water,Poison,40,40,35,50,100,70,1,False,9,455,rain-dish,liquid-ooze
73,Tentacruel,Water,Poison,80,70,65,80,120,100,1,False,16,550,rain-dish,liquid-ooze
74,Geodude,Rock,Ground,40,80,100,30,30,20,1,False,4,200,sand-veil,sturdy
75,Graveler,Rock,Ground,55,95,115,45,45,35,1,False,10,1050,sand-veil,sturdy
76,Golem,Rock,Ground,80,120,130,55,65,45,1,False,14,3000,sand-veil,sturdy
77,Ponyta,Fire,,50,85,55,65,65,90,1,False,10,300,flame-body,flash-fire
78,Rapidash,Fire,,65,100,70,80,80,105,1,False,17,950,flame-body,flash-fire
79,Slowpoke,Water,Psychic,90,65,65,40,40,15,1,False,12,360,regenerator,own-tempo
80,Slowbro,Water,Psychic,95,75,110,100,80,30,1,False,16,785,regenerator,own-tempo
81,Magnemite,Electric,Steel,25,35,70,95,55,45,1,False,3,60,analytic,sturdy
82,Magneton,Electric,Steel,50,60,95,120,70,70,1,False,10,600,analytic,sturdy
83,Farfetch'd,Normal,Flying,52,65,55,58,62,60,1,False,8,150,defiant,inner-focus
84,Doduo,Normal,Flying,35,85,45,35,35,75,1,False,14,392,tangled-feet,early-bird
85,Dodrio,Normal,Flying,60,110,70,60,60,100,1,False,18,852,tangled-feet,early-bird
86,Seel,Water,,65,45,55,45,70,45,1,False,11,900,ice-body,hydration
87,Dewgong,Water,Ice,90,70,80,70,95,70,1,False,17,1200,ice-body,hydration
88,Grimer,Poison,,80,80,50,40,50,25,1,False,9,300,poison-touch,sticky-hold
89,Muk,Poison,,105,105,75,65,100,50,1,False,12,300,poison-touch,sticky-hold
90,Shellder,Water,,30,65,100,45,25,40,1,False,3,40,overcoat,skill-link
91,Cloyster,Water,Ice,50,95,180,85,45,70,1,False,15,1325,overcoat,skill-link
92,Gastly,Ghost,Poison,30,35,30,100,35,80,1,False,13,1,levitate,
93,Haunter,Ghost,Poison,45,50,45,115,55,95,1,False,16,1,levitate,
94,Gengar,Ghost,Poison,60,65,60,130,75,110,1,False,15,405,cursed-body,
95,Onix,Rock,Ground,35,45,160,30,45,70,1,False,88,2100,weak-armor,sturdy
96,Drowzee,Psychic,,60,48,45,43,90,42,1,False,10,324,inner-focus,forewarn
97,Hypno,Psychic,,85,73,70,73,115,67,1,False,16,756,inner-focus,forewarn
98,Krabby,Water,,30,105,90,25,25,50,1,False,4,65,sheer-force,shell-armor
99,Kingler,Water,,55,130,115,50,50,75,1,False,13,600,sheer-force,shell-armor
100,Voltorb,Electric,,40,30,50,55,55,100,1,False,5,104,aftermath,static
101,Electrode,Electric,,60,50,70,80,80,140,1,False,12,666,aftermath,static
102,Exeggcute,Grass,Psychic,60,40,80,60,45,40,1,False,4,25,harvest,chlorophyll
103,Exeggutor,Grass,Psychic,95,95,85,125,65,55,1,False,20,1200,harvest,chlorophyll
104,Cubone,Ground,,50,50,95,40,50,35,1,False,4,65,battle-armor,lightning-rod
105,Marowak,Ground,,60,80,110,50,80,45,1,False,10,450,battle-armor,lightning-rod
106,Hitmonlee,Fighting,,50,120,53,35,110,87,1,False,15,498,unburden,reckless
107,Hitmonchan,Fighting,,50,105,79,35,110,76,1,False,14,502,inner-focus,iron-fist
108,Lickitung,Normal,,90,55,75,60,75,30,1,False,12,655,cloud-nine,oblivious
109,Koffing,Poison,,40,65,95,60,45,35,1,False,6,10,levitate,
110,Weezing,Poison,,65,90,120,85,70,60,1,False,12,95,levitate,
111,Rhyhorn,Ground,Rock,80,85,95,30,30,25,1,False,10,1150,reckless,rock-head
112,Rhydon,Ground,Rock,105,130,120,45,45,40,1,False,19,1200,reckless,rock-head
113,Chansey,Normal,,250,5,5,35,105,50,1,False,11,346,healer,serene-grace
114,Tangela,Grass,,65,55,115,100,40,60,1,False,10,350,regenerator,leaf-guard
115,Kangaskhan,Normal,,105,95,80,40,80,90,1,False,22,800,inner-focus,scrappy
116,Horsea,Water,,30,40,70,70,25,60,1,False,4,80,damp,sniper
117,Seadra,Water,,55,65,95,95,45,85,1,False,12,250,damp,sniper
118,Goldeen,Water,,45,67,60,35,50,63,1,False,6,150,lightning-rod,water-veil
119,Seaking,Water,,80,92,65,65,80,68,1,False,13,390,lightning-rod,water-veil
120,Staryu,Water,,30,45,55,70,55,85,1,False,8,345,analytic,natural-cure
121,Starmie,Water,Psychic,60,75,85,100,85,115,1,False,11,800,analytic,natural-cure
122,Mr. Mime,Psychic,Fairy,40,45,65,100,120,90,1,False,13,545,technician,filter
123,Scyther,Bug,Flying,70,110,80,55,80,105,1,False,15,560,steadfast,technician
124,Jynx,Ice,Psychic,65,50,35,115,95,95,1,False,14,406,dry-skin,forewarn
125,Electabuzz,Electric,,65,83,57,95,85,105,1,False,11,300,vital-spirit,static
126,Magmar,Fire,,65,95,57,100,85,93,1,False,13,445,vital-spirit,flame-body
127,Pinsir,Bug,,65,125,100,55,70,85,1,False,15,550,moxie,mold-breaker
128,Tauros,Normal,,75,100,95,40,70,110,1,False,14,884,sheer-force,anger-point
129,Magikarp,Water,,20,10,55,15,20,80,1,False,9,100,rattled,swift-swim
130,Gyarados,Water,Flying,95,125,79,60,100,81,1,False,65,2350,moxie,intimidate
131,Lapras,Water,Ice,130,85,80,85,95,60,1,False,25,2200,hydration,shell-armor
132,Ditto,Normal,,48,48,48,48,48,48,1,False,3,40,imposter,limber
133,Eevee,Normal,,55,55,50,45,65,55,1,False,3,65,anticipation,adaptability
134,Vaporeon,Water,,130,65,60,110,95,65,1,False,10,290,hydration,water-absorb
135,Jolteon,Electric,,65,65,60,110,95,130,1,False,8,245,quick-feet,volt-absorb
136,Flareon,Fire,,65,130,60,95,110,65,1,False,9,250,guts,flash-fire
137,Porygon,Normal,,65,60,70,85,75,40,1,False,8,365,analytic,download
138,Omanyte,Rock,Water,35,40,100,90,55,35,1,False,4,75,weak-armor,shell-armor
139,Omastar,Rock,Water,70,60,125,115,70,55,1,False,10,350,weak-armor,shell-armor
140,Kabuto,Rock,Water,30,80,90,55,45,55,1,False,5,115,weak-armor,battle-armor
141,Kabutops,Rock,Water,60,115,105,65,70,80,1,False,13,405,weak-armor,battle-armor
142,Aerodactyl,Rock,Flying,80,105,65,60,75,130,1,False,18,590,unnerve,pressure
143,Snorlax,Normal,,160,110,65,65,110,30,1,False,21,4600,gluttony,thick-fat
144,Articuno,Ice,Flying,90,85,100,95,125,85,1,True,17,554,snow-cloak,pressure
145,Zapdos,Electric,Flying,90,90,85,125,90,100,1,True,16,526,static,pressure
146,Moltres,Fire,Flying,90,100,90,125,85,90,1,True,20,600,flame-body,pressure
147,Dratini,Dragon,,41,64,45,50,50,50,1,False,18,33,marvel-scale,shed-skin
148,Dragonair,Dragon,,61,84,65,70,70,70,1,False,40,165,marvel-scale,shed-skin
149,Dragonite,Dragon,Flying,91,134,95,100,100,80,1,False,22,2100,multiscale,inner-focus
150,Mewtwo,Psychic,,106,110,90,154,90,130,1,True,20,1220,unnerve,pressure
151,Mew,Psychic,,100,100,100,100,100,100,1,False,4,40,synchronize,
152,Chikorita,Grass,,45,49,65,49,65,45,2,False,9,64,leaf-guard,overgrow
153,Bayleef,Grass,,60,62,80,63,80,60,2,False,12,158,leaf-guard,overgrow
154,Meganium,Grass,,80,82,100,83,100,80,2,False,18,1005,leaf-guard,overgrow
155,Cyndaquil,Fire,,39,52,43,60,50,65,2,False,5,79,flash-fire,blaze
156,Quilava,Fire,,58,64,58,80,65,80,2,False,9,190,flash-fire,blaze
157,Typhlosion,Fire,,78,84,78,109,85,100,2,False,17,795,flash-fire,blaze
158,Totodile,Water,,50,65,64,44,48,43,2,False,6,95,sheer-force,torrent
159,Croconaw,Water,,65,80,80,59,63,58,2,False,11,250,sheer-force,torrent
160,Feraligatr,Water,,85,105,100,79,83,78,2,False,23,888,sheer-force,torrent
161,Sentret,Normal,,35,46,34,35,45,20,2,False,8,60,frisk,keen-eye
162,Furret,Normal,,85,76,64,45,55,90,2,False,18,325,frisk,keen-eye
163,Hoothoot,Normal,Flying,60,30,30,36,56,50,2,False,7,212,tinted-lens,keen-eye
164,Noctowl,Normal,Flying,100,50,50,76,96,70,2,False,16,408,tinted-lens,keen-eye
165,Ledyba,Bug,Flying,40,20,30,40,80,55,2,False,10,108,rattled,early-bird
166,Ledian,Bug,Flying,55,35,50,55,110,85,2,False,14,356,iron-fist,early-bird
167,Spinarak,Bug,Poison,40,60,40,40,40,30,2,False,5,85,sniper,insomnia
168,Ariados,Bug,Poison,70,90,70,60,60,40,2,False,11,335,sniper,insomnia
169,Crobat,Poison,Flying,85,90,80,70,80,130,2,False,18,750,infiltrator,inner-focus
170,Chinchou,Water,Electric,75,38,38,56,56,67,2,False,5,120,water-absorb,illuminate
171,Lanturn,Water,Electric,125,58,58,76,76,67,2,False,12,225,water-absorb,illuminate
172,Pichu,Electric,,20,40,15,35,35,60,2,False,3,20,lightning-rod,static
173,Cleffa,Fairy,,50,25,28,45,55,15,2,False,3,30,friend-guard,magic-guard
174,Igglybuff,Normal,Fairy,90,30,15,40,20,15,2,False,3,10,friend-guard,competitive
175,Togepi,Fairy,,35,20,65,40,65,20,2,False,3,15,super-luck,serene-grace
176,Togetic,Fairy,Flying,55,40,85,80,105,40,2,False,6,32,super-luck,serene-grace
177,Natu,Psychic,Flying,40,50,45,70,45,70,2,False,2,20,magic-bounce,early-bird
178,Xatu,Psychic,Flying,65,75,70,95,70,95,2,False,15,150,magic-bounce,early-bird
179,Mareep,Electric,,55,40,40,65,45,35,2,False,6,78,plus,static
180,Flaaffy,Electric,,70,55,55,80,60,45,2,False,8,133,plus,static
181,Ampharos,Electric,,90,75,85,115,90,55,2,False,14,615,plus,static
182,Bellossom,Grass,,75,80,95,90,100,50,2,False,4,58,healer,chlorophyll
183,Marill,Water,Fairy,70,20,50,20,50,40,2,False,4,85,sap-sipper,huge-power
184,Azumarill,Water,Fairy,100,50,80,60,80,50,2,False,8,285,sap-sipper,huge-power
185,Sudowoodo,Rock,,70,100,115,30,65,30,2,False,12,380,rattled,rock-head
186,Politoed,Water,,90,75,75,90,100,70,2,False,11,339,drizzle,damp
187,Hoppip,Grass,Flying,35,35,40,35,55,50,2,False,4,5,infiltrator,leaf-guard
188,Skiploom,Grass,Flying,55,45,50,45,65,80,2,False,6,10,infiltrator,leaf-guard
189,Jumpluff,Grass,Flying,75,55,70,55,95,110,2,False,8,30,infiltrator,leaf-guard
190,Aipom,Normal,,55,70,55,40,55,85,2,False,8,115,skill-link,pickup
191,Sunkern,Grass,,30,30,30,30,30,30,2,False,3,18,early-bird,solar-power
192,Sunflora,Grass,,75,75,55,105,85,30,2,False,8,85,early-bird,solar-power
193,Yanma,Bug,Flying,65,65,45,75,45,95,2,False,12,380,frisk,compound-eyes
194,Wooper,Water,Ground,55,45,45,25,25,15,2,False,4,85,unaware,water-absorb
195,Quagsire,Water,Ground,95,85,85,65,65,35,2,False,14,750,unaware,water-absorb
196,Espeon,Psychic,,65,65,60,130,95,110,2,False,9,265,magic-bounce,synchronize
197,Umbreon,Dark,,95,65,110,60,130,65,2,False,10,270,inner-focus,synchronize
198,Murkrow,Dark,Flying,60,85,42,85,42,91,2,False,5,21,prankster,super-luck
199,Slowking,Water,Psychic,95,75,80,100,110,30,2,False,20,795,regenerator,own-tempo
200,Misdreavus,Ghost,,60,60,60,85,85,85,2,False,7,10,levitate,
201,Unown,Psychic,,48,72,48,72,48,48,2,False,5,50,levitate,
202,Wobbuffet,Psychic,,190,33,58,33,58,33,2,False,13,285,telepathy,shadow-tag
203,Girafarig,Normal,Psychic,70,80,65,90,65,85,2,False,15,415,sap-sipper,early-bird
204,Pineco,Bug,,50,65,90,35,35,15,2,False,6,72,overcoat,sturdy
205,Forretress,Bug,Steel,75,90,140,60,60,40,2,False,12,1258,overcoat,sturdy
206,Dunsparce,Normal,,100,70,70,65,65,45,2,False,15,140,rattled,run-away
207,Gligar,Ground,Flying,65,75,105,35,65,85,2,False,11,648,immunity,sand-veil
208,Steelix,Steel,Ground,75,85,200,55,65,30,2,False,92,4000,sheer-force,sturdy
209,Snubbull,Fairy,,60,80,50,40,40,30,2,False,6,78,rattled,run-away
210,Granbull,Fairy,,90,120,75,60,60,45,2,False,14,487,rattled,quick-feet
211,Qwilfish,Water,Poison,65,95,75,55,55,85,2,False,5,39,intimidate,swift-swim
212,Scizor,Bug,Steel,70,130,100,55,80,65,2,False,18,1180,light-metal,technician
213,Shuckle,Bug,Rock,20,10,230,10,230,5,2,False,6,205,contrary,gluttony
214,Heracross,Bug,Fighting,80,125,75,40,95,85,2,False,15,540,moxie,guts
215,Sneasel,Dark,Ice,55,95,55,35,75,115,2,False,9,280,pickpocket,keen-eye
216,Teddiursa,Normal,,60,80,50,50,50,40,2,False,6,88,honey-gather,quick-feet
217,Ursaring,Normal,,90,130,75,75,75,55,2,False,18,1258,unnerve,quick-feet
218,Slugma,Fire,,40,40,40,70,40,20,2,False,7,350,weak-armor,flame-body
219,Magcargo,Fire,Rock,50,50,120,80,80,30,2,False,8,550,weak-armor,flame-body
220,Swinub,Ice,Ground,50,50,40,30,30,50,2,False,4,65,thick-fat,snow-cloak
221,Piloswine,Ice,Ground,100,100,80,60,60,50,2,False,11,558,thick-fat,snow-cloak
222,Corsola,Water,Rock,55,55,85,65,85,35,2,False,6,50,regenerator,natural-cure
223,Remoraid,Water,,35,65,35,65,35,65,2,False,6,120,moody,sniper
224,Octillery,Water,,75,105,75,105,75,45,2,False,9,285,moody,sniper
225,Delibird,Ice,Flying,45,55,45,65,45,75,2,False,9,160,insomnia,hustle
226,Mantine,Water,Flying,65,40,70,80,140,70,2,False,21,2200,water-veil,water-absorb
227,Skarmory,Steel,Flying,65,80,140,40,70,70,2,False,17,505,weak-armor,sturdy
228,Houndour,Dark,Fire,45,60,30,80,50,65,2,False,6,108,unnerve,flash-fire
229,Houndoom,Dark,Fire,75,90,50,110,80,95,2,False,14,350,unnerve,flash-fire
230,Kingdra,Water,Dragon,75,95,95,95,95,85,2,False,18,1520,damp,sniper
231,Phanpy,Ground,,90,60,60,40,40,40,2,False,5,335,sand-veil,pickup
232,Donphan,Ground,,90,120,120,60,60,50,2,False,11,1200,sand-veil,sturdy
233,Porygon2,Normal,,85,80,90,105,95,60,2,False,6,325,analytic,download
234,Stantler,Normal,,73,95,62,85,65,85,2,False,14,712,sap-sipper,frisk
235,Smeargle,Normal,,55,20,35,20,45,75,2,False,12,580,moody,technician
236,Tyrogue,Fighting,,35,35,35,35,35,35,2,False,7,210,vital-spirit,steadfast
237,Hitmontop,Fighting,,50,95,95,35,110,70,2,False,14,480,steadfast,technician
238,Smoochum,Ice,Psychic,45,30,15,85,65,65,2,False,4,60,hydration,forewarn
239,Elekid,Electric,,45,63,37,65,55,95,2,False,6,235,vital-spirit,static
240,Magby,Fire,,45,75,37,70,55,83,2,False,7,214,vital-spirit,flame-body
241,Miltank,Normal,,95,80,105,40,70,100,2,False,12,755,sap-sipper,scrappy
242,Blissey,Normal,,255,10,10,75,135,55,2,False,15,468,healer,serene-grace
243,Raikou,Electric,,90,85,75,115,100,115,2,True,19,1780,inner-focus,pressure
244,Entei,Fire,,115,115,85,90,75,100,2,True,21,1980,inner-focus,pressure
245,Suicune,Water,,100,75,115,90,115,85,2,True,20,1870,inner-focus,pressure
246,Larvitar,Rock,Ground,50,64,50,45,50,41,2,False,6,720,sand-veil,guts
247,Pupitar,Rock,Ground,70,84,70,65,70,51,2,False,12,1520,shed-skin,
248,Tyranitar,Rock,Dark,100,134,110,95,100,61,2,False,20,2020,unnerve,sand-stream
249,Lugia,Psychic,Flying,106,90,130,90,154,110,2,True,52,2160,multiscale,pressure
250,Ho-oh,Fire,Flying,106,130,90,110,154,90,2,True,38,1990,regenerator,pressure
251,Celebi,Psychic,Grass,100,100,100,100,100,100,2,False,6,50,natural-cure,
252,Treecko,Grass,,40,45,35,65,55,70,3,False,5,50,unburden,overgrow
253,Grovyle,Grass,,50,65,45,85,65,95,3,False,9,216,unburden,overgrow
254,Sceptile,Grass,,70,85,65,105,85,120,3,False,17,522,unburden,overgrow
255,Torchic,Fire,,45,60,40,70,50,45,3,False,4,25,speed-boost,blaze
256,Combusken,Fire,Fighting,60,85,60,85,60,55,3,False,9,195,speed-boost,blaze
257,Blaziken,Fire,Fighting,80,120,70,110,70,80,3,False,19,520,speed-boost,blaze
258,Mudkip,Water,,50,70,50,50,50,40,3,False,4,76,damp,torrent
259,Marshtomp,Water,Ground,70,85,70,60,70,50,3,False,7,280,damp,torrent
260,Swampert,Water,Ground,100,110,90,85,90,60,3,False,15,819,damp,torrent
261,Poochyena,Dark,,35,55,35,30,30,35,3,False,5,136,rattled,quick-feet
262,Mightyena,Dark,,70,90,70,60,60,70,3,False,10,370,moxie,quick-feet
263,Zigzagoon,Normal,,38,30,41,30,41,60,3,False,4,175,quick-feet,gluttony
264,Linoone,Normal,,78,70,61,50,61,100,3,False,5,325,quick-feet,gluttony
265,Wurmple,Bug,,45,45,35,20,30,20,3,False,3,36,run-away,shield-dust
266,Silcoon,Bug,,50,35,55,25,25,15,3,False,6,100,shed-skin,
267,Beautifly,Bug,Flying,60,70,50,100,50,65,3,False,10,284,rivalry,swarm
268,Cascoon,Bug,,50,35,55,25,25,15,3,False,7,115,shed-skin,
269,Dustox,Bug,Poison,60,50,70,50,90,65,3,False,12,316,compound-eyes,shield-dust
270,Lotad,Water,Grass,40,30,30,40,50,30,3,False,5,26,own-tempo,rain-dish
271,Lombre,Water,Grass,60,50,50,60,70,50,3,False,12,325,own-tempo,rain-dish
272,Ludicolo,Water,Grass,80,70,70,90,100,70,3,False,15,550,own-tempo,rain-dish
273,Seedot,Grass,,40,40,50,30,30,30,3,False,5,40,pickpocket,early-bird
274,Nuzleaf,Grass,Dark,70,70,40,60,40,60,3,False,10,280,pickpocket,early-bird
275,Shiftry,Grass,Dark,90,100,60,90,60,80,3,False,13,596,pickpocket,early-bird
276,Taillow,Normal,Flying,40,55,30,30,30,85,3,False,3,23,scrappy,guts
277,Swellow,Normal,Flying,60,85,60,50,50,125,3,False,7,198,scrappy,guts
278,Wingull,Water,Flying,40,30,30,55,30,85,3,False,6,95,rain-dish,hydration
279,Pelipper,Water,Flying,60,50,100,85,70,65,3,False,12,280,rain-dish,drizzle
280,Ralts,Psychic,Fairy,28,25,25,45,35,40,3,False,4,66,telepathy,trace
281,Kirlia,Psychic,Fairy,38,35,35,65,55,50,3,False,8,202,telepathy,trace
282,Gardevoir,Psychic,Fairy,68,65,65,125,115,80,3,False,16,484,telepathy,trace
283,Surskit,Bug,Water,40,30,32,50,52,65,3,False,5,17,rain-dish,swift-swim
284,Masquerain,Bug,Flying,70,60,62,80,82,60,3,False,8,36,unnerve,intimidate
285,Shroomish,Grass,,60,40,60,40,60,35,3,False,4,45,quick-feet,poison-heal
286,Breloom,Grass,Fighting,60,130,80,60,60,70,3,False,12,392,technician,poison-heal
287,Slakoth,Normal,,60,60,60,35,35,30,3,False,8,240,truant,
288,Vigoroth,Normal,,80,80,80,55,55,90,3,False,14,465,vital-spirit,
289,Slaking,Normal,,150,160,100,95,65,100,3,False,20,1305,truant,
290,Nincada,Bug,Ground,31,45,90,30,30,40,3,False,5,55,run-away,compound-eyes
291,Ninjask,Bug,Flying,61,90,45,50,50,160,3,False,8,120,infiltrator,speed-boost
292,Shedinja,Bug,Ghost,1,90,45,30,30,40,3,False,8,12,wonder-guard,
293,Whismur,Normal,,64,51,23,51,23,28,3,False,6,163,rattled,soundproof
294,Loudred,Normal,,84,71,43,71,43,48,3,False,10,405,scrappy,soundproof
295,Exploud,Normal,,104,91,63,91,73,68,3,False,15,840,scrappy,soundproof
296,Makuhita,Fighting,,72,60,30,20,30,25,3,False,10,864,sheer-force,guts
297,Hariyama,Fighting,,144,120,60,40,60,50,3,False,23,2538,sheer-force,guts
298,Azurill,Normal,Fairy,50,20,40,20,40,20,3,False,2,20,sap-sipper,huge-power
299,Nosepass,Rock,,30,45,135,45,90,30,3,False,10,970,sand-force,magnet-pull
300,Skitty,Normal,,50,45,45,35,35,50,3,False,6,110,wonder-skin,normalize
301,Delcatty,Normal,,70,65,65,55,55,70,3,False,11,326,wonder-skin,normalize
302,Sableye,Dark,Ghost,50,75,75,65,65,50,3,False,5,110,prankster,stall
303,Mawile,Steel,Fairy,50,85,85,55,55,50,3,False,6,115,sheer-force,intimidate
304,Aron,Steel,Rock,50,70,100,40,40,30,3,False,4,600,heavy-metal,rock-head
305,Lairon,Steel,Rock,60,90,140,50,50,40,3,False,9,1200,heavy-metal,rock-head
306,Aggron,Steel,Rock,70,110,180,60,60,50,3,False,21,3600,heavy-metal,rock-head
307,Meditite,Fighting,Psychic,30,40,55,40,55,60,3,False,6,112,telepathy,pure-power
308,Medicham,Fighting,Psychic,60,60,75,60,75,80,3,False,13,315,telepathy,pure-power
309,Electrike,Electric,,40,45,40,65,40,65,3,False,6,152,minus,lightning-rod
310,Manectric,Electric,,70,75,60,105,60,105,3,False,15,402,minus,lightning-rod
311,Plusle,Electric,,60,50,40,85,75,95,3,False,4,42,lightning-rod,plus
312,Minun,Electric,,60,40,50,75,85,95,3,False,4,42,volt-absorb,minus
313,Volbeat,Bug,,65,73,55,47,75,85,3,False,7,177,prankster,swarm
314,Illumise,Bug,,65,47,55,73,75,85,3,False,6,177,prankster,tinted-lens
315,Roselia,Grass,Poison,50,60,45,100,80,65,3,False,3,20,leaf-guard,poison-point
316,Gulpin,Poison,,70,43,53,43,53,40,3,False,4,103,gluttony,sticky-hold
317,Swalot,Poison,,100,73,83,73,83,55,3,False,17,800,gluttony,sticky-hold
318,Carvanha,Water,Dark,45,90,20,65,20,65,3,False,8,208,speed-boost,rough-skin
319,Sharpedo,Water,Dark,70,120,40,95,40,95,3,False,18,888,speed-boost,rough-skin
320,Wailmer,Water,,130,70,35,70,35,60,3,False,20,1300,pressure,oblivious
321,Wailord,Water,,170,90,45,90,45,60,3,False,145,3980,pressure,oblivious
322,Numel,Fire,Ground,60,60,40,65,45,35,3,False,7,240,own-tempo,simple
323,Camerupt,Fire,Ground,70,100,70,105,75,40,3,False,19,2200,anger-point,solid-rock
324,Torkoal,Fire,,70,85,140,85,70,20,3,False,5,804,shell-armor,drought
325,Spoink,Psychic,,60,25,35,70,80,60,3,False,7,306,gluttony,own-tempo
326,Grumpig,Psychic,,80,45,65,90,110,80,3,False,9,715,gluttony,own-tempo
327,Spinda,Normal,,60,60,60,60,60,60,3,False,11,50,contrary,tangled-feet
328,Trapinch,Ground,,45,100,45,45,45,10,3,False,7,150,sheer-force,arena-trap
329,Vibrava,Ground,Dragon,50,70,50,50,50,70,3,False,11,153,levitate,
330,Flygon,Ground,Dragon,80,100,80,80,80,100,3,False,20,820,levitate,
331,Cacnea,Grass,,50,85,40,85,40,35,3,False,4,513,water-absorb,sand-veil
332,Cacturne,Grass,Dark,70,115,60,115,60,55,3,False,13,774,water-absorb,sand-veil
333,Swablu,Normal,Flying,45,40,60,40,75,50,3,False,4,12,cloud-nine,natural-cure
334,Altaria,Dragon,Flying,75,70,90,70,105,80,3,False,11,206,cloud-nine,natural-cure
335,Zangoose,Normal,,73,115,60,60,60,90,3,False,13,403,toxic-boost,immunity
336,Seviper,Poison,,73,100,60,100,60,65,3,False,27,525,infiltrator,shed-skin
337,Lunatone,Rock,Psychic,70,55,65,95,85,70,3,False,10,1680,levitate,
338,Solrock,Rock,Psychic,70,95,85,55,65,70,3,False,12,1540,levitate,
339,Barboach,Water,Ground,50,48,43,46,41,60,3,False,4,19,hydration,anticipation
340,Whiscash,Water,Ground,110,78,73,76,71,60,3,False,9,236,hydration,anticipation
341,Corphish,Water,,43,80,65,50,35,35,3,False,6,115,adaptability,shell-armor
342,Crawdaunt,Water,Dark,63,120,85,90,55,55,3,False,11,328,adaptability,shell-armor
343,Baltoy,Ground,Psychic,40,40,55,40,70,55,3,False,5,215,levitate,
344,Claydol,Ground,Psychic,60,70,105,70,120,75,3,False,15,1080,levitate,
345,Lileep,Rock,Grass,66,41,77,61,87,23,3,False,10,238,storm-drain,suction-cups
346,Cradily,Rock,Grass,86,81,97,81,107,43,3,False,15,604,storm-drain,suction-cups
347,Anorith,Rock,Bug,45,95,50,40,50,75,3,False,7,125,swift-swim,battle-armor
348,Armaldo,Rock,Bug,75,125,100,70,80,45,3,False,15,682,swift-swim,battle-armor
349,Feebas,Water,,20,15,20,10,55,80,3,False,6,74,adaptability,oblivious
350,Milotic,Water,,95,60,79,100,125,81,3,False,62,1620,cute-charm,competitive
351,Castform,Normal,,70,70,70,70,70,70,3,False,3,8,forecast,
352,Kecleon,Normal,,60,90,70,60,120,40,3,False,10,220,protean,color-change
353,Shuppet,Ghost,,44,75,35,63,33,45,3,False,6,23,cursed-body,frisk
354,Banette,Ghost,,64,115,65,83,63,65,3,False,11,125,cursed-body,frisk
355,Duskull,Ghost,,20,40,90,30,90,25,3,False,8,150,frisk,levitate
356,Dusclops,Ghost,,40,70,130,60,130,25,3,False,16,306,frisk,pressure
357,Tropius,Grass,Flying,99,68,83,72,87,51,3,False,20,1000,harvest,solar-power
358,Chimecho,Psychic,,65,50,70,95,80,65,3,False,6,10,levitate,
359,Absol,Dark,,65,130,60,75,60,75,3,False,12,470,justified,super-luck
360,Wynaut,Psychic,,95,23,48,23,48,23,3,False,6,140,telepathy,shadow-tag
361,Snorunt,Ice,,50,50,50,50,50,50,3,False,7,168,moody,ice-body
362,Glalie,Ice,,80,80,80,80,80,80,3,False,15,2565,moody,ice-body
363,Spheal,Ice,Water,70,40,50,55,50,25,3,False,8,395,oblivious,ice-body
364,Sealeo,Ice,Water,90,60,70,75,70,45,3,False,11,876,oblivious,ice-body
365,Walrein,Ice,Water,110,80,90,95,90,65,3,False,14,1506,oblivious,ice-body
366,Clamperl,Water,,35,64,85,74,55,32,3,False,4,525,rattled,shell-armor
367,Huntail,Water,,55,104,105,94,75,52,3,False,17,270,water-veil,swift-swim
368,Gorebyss,Water,,55,84,105,114,75,52,3,False,18,226,hydration,swift-swim
369,Relicanth,Water,Rock,100,90,130,45,65,55,3,False,10,234,sturdy,rock-head
370,Luvdisc,Water,,43,30,55,40,65,97,3,False,6,87,hydration,swift-swim
371,Bagon,Dragon,,45,75,60,40,30,50,3,False,6,421,sheer-force,rock-head
372,Shelgon,Dragon,,65,95,100,60,50,50,3,False,11,1105,overcoat,rock-head
373,Salamence,Dragon,Flying,95,135,80,110,80,100,3,False,15,1026,moxie,intimidate
374,Beldum,Steel,Psychic,40,55,80,35,60,30,3,False,6,952,light-metal,clear-body
375,Metang,Steel,Psychic,60,75,100,55,80,50,3,False,12,2025,light-metal,clear-body
376,Metagross,Steel,Psychic,80,135,130,95,90,70,3,False,16,5500,light-metal,clear-body
377,Regirock,Rock,,80,100,200,50,100,50,3,True,17,2300,sturdy,clear-body
378,Regice,Ice,,80,50,100,100,200,50,3,True,18,1750,ice-body,clear-body
379,Registeel,Steel,,80,75,150,75,150,50,3,True,19,2050,light-metal,clear-body
380,Latias,Dragon,Psychic,80,80,90,110,130,110,3,True,14,400,levitate,
381,Latios,Dragon,Psychic,80,90,80,130,110,110,3,True,20,600,levitate,
382,Kyogre,Water,,100,100,90,150,140,90,3,True,45,3520,drizzle,
383,Groudon,Ground,,100,150,140,100,90,90,3,True,35,9500,drought,
384,Rayquaza,Dragon,Flying,105,150,90,150,90,95,3,True,70,2065,air-lock,
385,Jirachi,Steel,Psychic,100,100,100,100,100,100,3,True,3,11,serene-grace,
386,DeoxysNormal Forme,Psychic,,50,150,50,150,50,150,3,True,17,608,pressure,
387,Turtwig,Grass,,55,68,64,45,55,31,4,False,4,102,shell-armor,overgrow
388,Grotle,Grass,,75,89,85,55,65,36,4,False,11,970,shell-armor,overgrow
389,Torterra,Grass,Ground,95,109,105,75,85,56,4,False,22,3100,shell-armor,overgrow
390,Chimchar,Fire,,44,58,44,58,44,61,4,False,5,62,iron-fist,blaze
391,Monferno,Fire,Fighting,64,78,52,78,52,81,4,False,9,220,iron-fist,blaze
392,Infernape,Fire,Fighting,76,104,71,104,71,108,4,False,12,550,iron-fist,blaze
393,Piplup,Water,,53,51,53,61,56,40,4,False,4,52,defiant,torrent
394,Prinplup,Water,,64,66,68,81,76,50,4,False,8,230,defiant,torrent
395,Empoleon,Water,Steel,84,86,88,111,101,60,4,False,17,845,defiant,torrent
396,Starly,Normal,Flying,40,55,30,30,30,60,4,False,3,20,reckless,keen-eye
397,Staravia,Normal,Flying,55,75,50,40,40,80,4,False,6,155,reckless,intimidate
398,Staraptor,Normal,Flying,85,120,70,50,60,100,4,False,12,249,reckless,intimidate
399,Bidoof,Normal,,59,45,40,35,40,31,4,False,5,200,moody,unaware
400,Bibarel,Normal,Water,79,85,60,55,60,71,4,False,10,315,moody,unaware
401,Kricketot,Bug,,37,25,41,25,41,25,4,False,3,22,run-away,shed-skin
402,Kricketune,Bug,,77,85,51,55,51,65,4,False,10,255,technician,swarm
403,Shinx,Electric,,45,65,34,40,34,45,4,False,5,95,guts,intimidate
404,Luxio,Electric,,60,85,49,60,49,60,4,False,9,305,guts,intimidate
405,Luxray,Electric,,80,120,79,95,79,70,4,False,14,420,guts,intimidate
406,Budew,Grass,Poison,40,30,35,50,70,55,4,False,2,12,leaf-guard,poison-point
407,Roserade,Grass,Poison,60,70,65,125,105,90,4,False,9,145,technician,poison-point
408,Cranidos,Rock,,67,125,40,30,30,58,4,False,9,315,sheer-force,mold-breaker
409,Rampardos,Rock,,97,165,60,65,50,58,4,False,16,1025,sheer-force,mold-breaker
410,Shieldon,Rock,Steel,30,42,118,42,88,30,4,False,5,570,soundproof,sturdy
411,Bastiodon,Rock,Steel,60,52,168,47,138,30,4,False,13,1495,soundproof,sturdy
412,Burmy,Bug,,40,29,45,29,45,36,4,False,2,34,overcoat,shed-skin
413,WormadamPlant Cloak,Bug,Grass,60,59,85,79,105,36,4,False,5,65,overcoat,anticipation
414,Mothim,Bug,Flying,70,94,50,94,50,66,4,False,9,233,tinted-lens,swarm
415,Combee,Bug,Flying,30,30,42,30,42,70,4,False,3,55,hustle,honey-gather
416,Vespiquen,Bug,Flying,70,80,102,80,102,40,4,False,12,385,unnerve,pressure
417,Pachirisu,Electric,,60,45,70,45,90,95,4,False,4,39,volt-absorb,pickup
418,Buizel,Water,,55,65,35,60,30,85,4,False,7,295,water-veil,swift-swim
419,Floatzel,Water,,85,105,55,85,50,115,4,False,11,335,water-veil,swift-swim
420,Cherubi,Grass,,45,35,45,62,53,35,4,False,4,33,chlorophyll,
421,Cherrim,Grass,,70,60,70,87,78,85,4,False,5,93,flower-gift,
422,Shellos,Water,,76,48,48,57,62,34,4,False,3,63,sand-force,storm-drain
423,Gastrodon,Water,Ground,111,83,68,92,82,39,4,False,9,299,sand-force,storm-drain
424,Ambipom,Normal,,75,100,66,60,66,115,4,False,12,203,skill-link,pickup
425,Drifloon,Ghost,Flying,90,50,34,60,44,70,4,False,4,12,flare-boost,unburden
426,Drifblim,Ghost,Flying,150,80,44,90,54,80,4,False,12,150,flare-boost,unburden
427,Buneary,Normal,,55,66,44,44,56,85,4,False,4,55,limber,klutz
428,Lopunny,Normal,,65,76,84,54,96,105,4,False,12,333,limber,klutz
429,Mismagius,Ghost,,60,60,60,105,105,105,4,False,9,44,levitate,
430,Honchkrow,Dark,Flying,100,125,52,105,52,71,4,False,9,273,moxie,super-luck
431,Glameow,Normal,,49,55,42,42,37,85,4,False,5,39,keen-eye,own-tempo
432,Purugly,Normal,,71,82,64,64,59,112,4,False,10,438,defiant,own-tempo
433,Chingling,Psychic,,45,30,50,65,50,45,4,False,2,6,levitate,
434,Stunky,Poison,Dark,63,63,47,41,41,74,4,False,4,192,keen-eye,aftermath
435,Skuntank,Poison,Dark,103,93,67,71,61,84,4,False,10,380,keen-eye,aftermath
436,Bronzor,Steel,Psychic,57,24,86,24,86,23,4,False,5,605,heavy-metal,heatproof
437,Bronzong,Steel,Psychic,67,89,116,79,116,33,4,False,13,1870,heavy-metal,heatproof
438,Bonsly,Rock,,50,80,95,10,45,10,4,False,5,150,rattled,rock-head
439,Mime Jr.,Psychic,Fairy,20,25,45,70,90,60,4,False,6,130,technician,filter
440,Happiny,Normal,,100,5,5,15,65,30,4,False,6,244,friend-guard,serene-grace
441,Chatot,Normal,Flying,76,65,45,92,42,91,4,False,5,19,big-pecks,tangled-feet
442,Spiritomb,Ghost,Dark,50,92,108,92,108,35,4,False,10,1080,infiltrator,pressure
443,Gible,Dragon,Ground,58,70,45,40,45,42,4,False,7,205,rough-skin,sand-veil
444,Gabite,Dragon,Ground,68,90,65,50,55,82,4,False,14,560,rough-skin,sand-veil
445,Garchomp,Dragon,Ground,108,130,95,80,85,102,4,False,19,950,rough-skin,sand-veil
446,Munchlax,Normal,,135,85,40,40,85,5,4,False,6,1050,gluttony,thick-fat
447,Riolu,Fighting,,40,70,40,35,40,60,4,False,7,202,prankster,inner-focus
448,Lucario,Fighting,Steel,70,110,70,115,70,90,4,False,12,540,justified,inner-focus
449,Hippopotas,Ground,,68,72,78,38,42,32,4,False,8,495,sand-force,sand-stream
450,Hippowdon,Ground,,108,112,118,68,72,47,4,False,20,3000,sand-force,sand-stream
451,Skorupi,Poison,Bug,40,50,90,30,55,65,4,False,8,120,keen-eye,sniper
452,Drapion,Poison,Dark,70,90,110,60,75,95,4,False,13,615,keen-eye,sniper
453,Croagunk,Poison,Fighting,48,61,40,61,40,50,4,False,7,230,poison-touch,dry-skin
454,Toxicroak,Poison,Fighting,83,106,65,86,65,85,4,False,13,444,poison-touch,dry-skin
455,Carnivine,Grass,,74,100,72,90,72,46,4,False,14,270,levitate,
456,Finneon,Water,,49,49,56,49,61,66,4,False,4,70,water-veil,storm-drain
457,Lumineon,Water,,69,69,76,69,86,91,4,False,12,240,water-veil,storm-drain
458,Mantyke,Water,Flying,45,20,50,60,120,50,4,False,10,650,water-veil,water-absorb
459,Snover,Grass,Ice,60,62,50,62,60,40,4,False,10,505,soundproof,snow-warning
460,Abomasnow,Grass,Ice,90,92,75,92,85,60,4,False,22,1355,soundproof,snow-warning
461,Weavile,Dark,Ice,70,120,65,45,85,125,4,False,11,340,pickpocket,pressure
462,Magnezone,Electric,Steel,70,70,115,130,90,60,4,False,12,1800,analytic,sturdy
463,Lickilicky,Normal,,110,85,95,80,95,50,4,False,17,1400,cloud-nine,oblivious
464,Rhyperior,Ground,Rock,115,140,130,55,55,40,4,False,24,2828,reckless,solid-rock
465,Tangrowth,Grass,,100,100,125,110,50,50,4,False,20,1286,regenerator,leaf-guard
466,Electivire,Electric,,75,123,67,95,85,95,4,False,18,1386,vital-spirit,motor-drive
467,Magmortar,Fire,,75,95,67,125,95,83,4,False,16,680,vital-spirit,flame-body
468,Togekiss,Fairy,Flying,85,50,95,120,115,80,4,False,15,380,super-luck,serene-grace
469,Yanmega,Bug,Flying,86,76,86,116,56,95,4,False,19,515,frisk,tinted-lens
470,Leafeon,Grass,,65,110,130,60,65,95,4,False,10,255,chlorophyll,leaf-guard
471,Glaceon,Ice,,65,60,110,130,95,65,4,False,8,259,ice-body,snow-cloak
472,Gliscor,Ground,Flying,75,95,125,45,75,95,4,False,20,425,poison-heal,sand-veil
473,Mamoswine,Ice,Ground,110,130,80,70,60,80,4,False,25,2910,thick-fat,snow-cloak
474,Porygon-Z,Normal,,85,80,70,135,75,90,4,False,9,340,analytic,download
475,Gallade,Psychic,Fighting,68,125,65,65,115,80,4,False,16,520,justified,steadfast
476,Probopass,Rock,Steel,60,55,145,75,150,40,4,False,14,3400,sand-force,magnet-pull
477,Dusknoir,Ghost,,45,100,135,65,135,45,4,False,22,1066,frisk,pressure
478,Froslass,Ice,Ghost,70,80,70,80,70,110,4,False,13,266,cursed-body,snow-cloak
479,Rotom,Electric,Ghost,50,50,77,95,77,91,4,False,3,3,levitate,
480,Uxie,Psychic,,75,75,130,75,130,95,4,True,3,3,levitate,
481,Mesprit,Psychic,,80,105,105,105,105,80,4,True,3,3,levitate,
482,Azelf,Psychic,,75,125,70,125,70,115,4,True,3,3,levitate,
483,Dialga,Steel,Dragon,100,120,120,150,100,90,4,True,54,6830,telepathy,pressure
484,Palkia,Water,Dragon,90,120,100,150,120,100,4,True,42,3360,telepathy,pressure
485,Heatran,Fire,Steel,91,90,106,130,106,77,4,True,17,4300,flame-body,flash-fire
486,Regigigas,Normal,,110,160,110,80,110,100,4,True,37,4200,slow-start,
487,GiratinaAltered Forme,Ghost,Dragon,150,100,120,100,120,90,4,True,45,7500,telepathy,pressure
488,Cresselia,Psychic,,120,70,120,75,130,85,4,False,15,856,levitate,
489,Phione,Water,,80,80,80,80,80,80,4,False,4,31,hydration,
490,Manaphy,Water,,100,100,100,100,100,100,4,False,3,14,hydration,
491,Darkrai,Dark,,70,90,90,135,90,125,4,True,15,505,bad-dreams,
492,ShayminLand Forme,Grass,,100,100,100,100,100,100,4,True,2,21,natural-cure,
493,Arceus,Normal,,120,120,120,120,120,120,4,True,32,3200,multitype,
494,Victini,Psychic,Fire,100,100,100,100,100,100,5,True,4,40,victory-star,
495,Snivy,Grass,,45,45,55,45,55,63,5,False,6,81,contrary,overgrow
496,Servine,Grass,,60,60,75,60,75,83,5,False,8,160,contrary,overgrow
497,Serperior,Grass,,75,75,95,75,95,113,5,False,33,630,contrary,overgrow
498,Tepig,Fire,,65,63,45,45,45,45,5,False,5,99,thick-fat,blaze
499,Pignite,Fire,Fighting,90,93,55,70,55,55,5,False,10,555,thick-fat,blaze
500,Emboar,Fire,Fighting,110,123,65,100,65,65,5,False,16,1500,reckless,blaze
501,Oshawott,Water,,55,55,45,63,45,45,5,False,5,59,shell-armor,torrent
502,Dewott,Water,,75,75,60,83,60,60,5,False,8,245,shell-armor,torrent
503,Samurott,Water,,95,100,85,108,70,70,5,False,15,946,shell-armor,torrent
504,Patrat,Normal,,45,55,39,35,39,42,5,False,5,116,analytic,keen-eye
505,Watchog,Normal,,60,85,69,60,69,77,5,False,11,270,analytic,keen-eye
506,Lillipup,Normal,,45,60,45,25,45,55,5,False,4,41,run-away,pickup
507,Herdier,Normal,,65,80,65,35,65,60,5,False,9,147,scrappy,sand-rush
508,Stoutland,Normal,,85,110,90,45,90,80,5,False,12,610,scrappy,sand-rush
509,Purrloin,Dark,,41,50,37,50,37,66,5,False,4,101,prankster,unburden
510,Liepard,Dark,,64,88,50,88,50,106,5,False,11,375,prankster,unburden
511,Pansage,Grass,,50,53,48,53,48,64,5,False,6,105,overgrow,gluttony
512,Simisage,Grass,,75,98,63,98,63,101,5,False,11,305,overgrow,gluttony
513,Pansear,Fire,,50,53,48,53,48,64,5,False,6,110,blaze,gluttony
514,Simisear,Fire,,75,98,63,98,63,101,5,False,10,280,blaze,gluttony
515,Panpour,Water,,50,53,48,53,48,64,5,False,6,135,torrent,gluttony
516,Simipour,Water,,75,98,63,98,63,101,5,False,10,290,torrent,gluttony
517,Munna,Psychic,,76,25,45,67,55,24,5,False,6,233,telepathy,synchronize
518,Musharna,Psychic,,116,55,85,107,95,29,5,False,11,605,telepathy,synchronize
519,Pidove,Normal,Flying,50,55,50,36,30,43,5,False,3,21,rivalry,super-luck
520,Tranquill,Normal,Flying,62,77,62,50,42,65,5,False,6,150,rivalry,super-luck
521,Unfezant,Normal,Flying,80,115,80,65,55,93,5,False,12,290,rivalry,super-luck
522,Blitzle,Electric,,45,60,32,50,32,76,5,False,8,298,sap-sipper,motor-drive
523,Zebstrika,Electric,,75,100,63,80,63,116,5,False,16,795,sap-sipper,motor-drive
524,Roggenrola,Rock,,55,75,85,25,25,15,5,False,4,180,sand-force,weak-armor
525,Boldore,Rock,,70,105,105,50,40,20,5,False,9,1020,sand-force,weak-armor
526,Gigalith,Rock,,85,135,130,60,80,25,5,False,17,2600,sand-force,sand-stream
527,Woobat,Psychic,Flying,55,45,43,55,43,72,5,False,4,21,simple,klutz
528,Swoobat,Psychic,Flying,67,57,55,77,55,114,5,False,9,105,simple,klutz
529,Drilbur,Ground,,60,85,40,30,45,68,5,False,3,85,mold-breaker,sand-force
530,Excadrill,Ground,Steel,110,135,60,50,65,88,5,False,7,404,mold-breaker,sand-force
531,Audino,Normal,,103,60,86,60,86,50,5,False,11,310,klutz,regenerator
532,Timburr,Fighting,,75,80,55,25,35,35,5,False,6,125,iron-fist,sheer-force
533,Gurdurr,Fighting,,85,105,85,40,50,40,5,False,12,400,iron-fist,sheer-force
534,Conkeldurr,Fighting,,105,140,95,55,65,45,5,False,14,870,iron-fist,sheer-force
535,Tympole,Water,,50,50,40,50,40,64,5,False,5,45,water-absorb,hydration
536,Palpitoad,Water,Ground,75,65,55,65,55,69,5,False,8,170,water-absorb,hydration
537,Seismitoad,Water,Ground,105,95,75,85,75,74,5,False,15,620,water-absorb,poison-touch
538,Throh,Fighting,,120,100,85,30,85,45,5,False,13,555,mold-breaker,inner-focus
539,Sawk,Fighting,,75,125,75,30,75,85,5,False,14,510,mold-breaker,inner-focus
540,Sewaddle,Bug,Grass,45,53,70,40,60,42,5,False,3,25,overcoat,chlorophyll
541,Swadloon,Bug,Grass,55,63,90,50,80,42,5,False,5,73,overcoat,chlorophyll
542,Leavanny,Bug,Grass,75,103,80,70,80,92,5,False,12,205,overcoat,chlorophyll
543,Venipede,Bug,Poison,30,45,59,30,39,57,5,False,4,53,speed-boost,swarm
544,Whirlipede,Bug,Poison,40,55,99,40,79,47,5,False,12,585,speed-boost,swarm
545,Scolipede,Bug,Poison,60,100,89,55,69,112,5,False,25,2005,speed-boost,swarm
546,Cottonee,Grass,Fairy,40,27,60,37,50,66,5,False,3,6,chlorophyll,infiltrator
547,Whimsicott,Grass,Fairy,60,67,85,77,75,116,5,False,7,66,chlorophyll,infiltrator
548,Petilil,Grass,,45,35,50,70,50,30,5,False,5,66,leaf-guard,own-tempo
549,Lilligant,Grass,,70,60,75,110,75,90,5,False,11,163,leaf-guard,own-tempo
550,Basculin,Water,,70,92,65,80,55,98,5,False,10,180,mold-breaker,adaptability
551,Sandile,Ground,Dark,50,72,35,35,35,65,5,False,7,152,anger-point,moxie
552,Krokorok,Ground,Dark,60,82,45,45,45,74,5,False,10,334,anger-point,moxie
553,Krookodile,Ground,Dark,95,117,80,65,70,92,5,False,15,963,anger-point,moxie
554,Darumaka,Fire,,70,90,45,15,45,50,5,False,6,375,inner-focus,hustle
555,DarmanitanStandard Mode,Fire,,105,140,55,30,55,95,5,False,13,929,zen-mode,sheer-force
556,Maractus,Grass,,75,86,67,106,67,60,5,False,10,280,storm-drain,chlorophyll
557,Dwebble,Bug,Rock,50,65,85,35,35,55,5,False,3,145,weak-armor,shell-armor
558,Crustle,Bug,Rock,70,95,125,65,75,45,5,False,14,2000,weak-armor,shell-armor
559,Scraggy,Dark,Fighting,50,75,70,35,70,48,5,False,6,118,intimidate,moxie
560,Scrafty,Dark,Fighting,65,90,115,45,115,58,5,False,11,300,intimidate,moxie
561,Sigilyph,Psychic,Flying,72,58,80,103,80,97,5,False,14,140,tinted-lens,magic-guard
562,Yamask,Ghost,,38,30,85,55,65,30,5,False,5,15,mummy,
563,Cofagrigus,Ghost,,58,50,145,95,105,30,5,False,17,765,mummy,
564,Tirtouga,Water,Rock,54,78,103,53,45,22,5,False,7,165,swift-swim,sturdy
565,Carracosta,Water,Rock,74,108,133,83,65,32,5,False,12,810,swift-swim,sturdy
566,Archen,Rock,Flying,55,112,45,74,45,70,5,False,5,95,defeatist,
567,Archeops,Rock,Flying,75,140,65,112,65,110,5,False,14,320,defeatist,
568,Trubbish,Poison,,50,50,62,40,62,65,5,False,6,310,aftermath,sticky-hold
569,Garbodor,Poison,,80,95,82,60,82,75,5,False,19,1073,aftermath,weak-armor
570,Zorua,Dark,,40,65,40,80,40,65,5,False,7,125,illusion,
571,Zoroark,Dark,,60,105,60,120,60,105,5,False,16,811,illusion,
572,Minccino,Normal,,55,50,40,40,40,75,5,False,4,58,skill-link,technician
573,Cinccino,Normal,,75,95,60,65,60,115,5,False,5,75,skill-link,technician
574,Gothita,Psychic,,45,30,50,55,65,45,5,False,4,58,shadow-tag,competitive
575,Gothorita,Psychic,,60,45,70,75,85,55,5,False,7,180,shadow-tag,competitive
576,Gothitelle,Psychic,,70,55,95,95,110,65,5,False,15,440,shadow-tag,competitive
577,Solosis,Psychic,,45,30,40,105,50,20,5,False,3,10,regenerator,magic-guard
578,Duosion,Psychic,,65,40,50,125,60,30,5,False,6,80,regenerator,magic-guard
579,Reuniclus,Psychic,,110,65,75,125,85,30,5,False,10,201,regenerator,magic-guard
580,Ducklett,Water,Flying,62,44,50,44,50,55,5,False,5,55,hydration,big-pecks
581,Swanna,Water,Flying,75,87,63,87,63,98,5,False,13,242,hydration,big-pecks
582,Vanillite,Ice,,36,50,50,65,60,44,5,False,4,57,weak-armor,snow-cloak
583,Vanillish,Ice,,51,65,65,80,75,59,5,False,11,410,weak-armor,snow-cloak
584,Vanilluxe,Ice,,71,95,85,110,95,79,5,False,13,575,weak-armor,snow-warning
585,Deerling,Normal,Grass,60,60,50,40,50,75,5,False,6,195,serene-grace,sap-sipper
586,Sawsbuck,Normal,Grass,80,100,70,60,70,95,5,False,19,925,serene-grace,sap-sipper
587,Emolga,Electric,Flying,55,75,60,75,60,103,5,False,4,50,motor-drive,static
588,Karrablast,Bug,,50,75,45,40,45,60,5,False,5,59,no-guard,shed-skin
589,Escavalier,Bug,Steel,70,135,105,60,105,20,5,False,10,330,overcoat,shell-armor
590,Foongus,Grass,Poison,69,55,45,55,55,15,5,False,2,10,regenerator,effect-spore
591,Amoonguss,Grass,Poison,114,85,70,85,80,30,5,False,6,105,regenerator,effect-spore
592,Frillish,Water,Ghost,55,40,50,65,85,40,5,False,12,330,damp,cursed-body
593,Jellicent,Water,Ghost,100,60,70,85,105,60,5,False,22,1350,damp,cursed-body
594,Alomomola,Water,,165,75,80,40,45,65,5,False,12,316,regenerator,hydration
595,Joltik,Bug,Electric,50,47,50,57,50,65,5,False,1,6,swarm,unnerve
596,Galvantula,Bug,Electric,70,77,60,97,60,108,5,False,8,143,swarm,unnerve
597,Ferroseed,Grass,Steel,44,50,91,24,86,10,5,False,6,188,iron-barbs,
598,Ferrothorn,Grass,Steel,74,94,131,54,116,20,5,False,10,1100,anticipation,iron-barbs
599,Klink,Steel,,40,55,70,45,60,30,5,False,3,210,clear-body,minus
600,Klang,Steel,,60,80,95,70,85,50,5,False,6,510,clear-body,minus
601,Klinklang,Steel,,60,100,115,70,85,90,5,False,6,810,clear-body,minus
602,Tynamo,Electric,,35,55,40,45,40,60,5,False,2,3,levitate,
603,Eelektrik,Electric,,65,85,70,75,70,40,5,False,12,220,levitate,
604,Eelektross,Electric,,85,115,80,105,80,50,5,False,21,805,levitate,
605,Elgyem,Psychic,,55,55,55,85,55,30,5,False,5,90,analytic,synchronize
606,Beheeyem,Psychic,,75,75,75,125,95,40,5,False,10,345,analytic,synchronize
607,Litwick,Ghost,Fire,50,30,55,65,55,20,5,False,3,31,infiltrator,flame-body
608,Lampent,Ghost,Fire,60,40,60,95,60,55,5,False,6,130,infiltrator,flame-body
609,Chandelure,Ghost,Fire,60,55,90,145,90,80,5,False,10,343,infiltrator,flame-body
610,Axew,Dragon,,46,87,60,30,40,57,5,False,6,180,unnerve,mold-breaker
611,Fraxure,Dragon,,66,117,70,40,50,67,5,False,10,360,unnerve,mold-breaker
612,Haxorus,Dragon,,76,147,90,60,70,97,5,False,18,1055,unnerve,mold-breaker
613,Cubchoo,Ice,,55,70,40,60,40,40,5,False,5,85,rattled,slush-rush
614,Beartic,Ice,,95,110,80,70,80,50,5,False,26,2600,swift-swim,slush-rush
615,Cryogonal,Ice,,70,50,30,95,135,105,5,False,11,1480,levitate,
616,Shelmet,Bug,,50,40,85,40,65,25,5,False,4,77,overcoat,shell-armor
617,Accelgor,Bug,,80,70,40,100,60,145,5,False,8,253,unburden,sticky-hold
618,Stunfisk,Ground,Electric,109,66,84,81,99,32,5,False,7,110,sand-veil,limber
619,Mienfoo,Fighting,,45,85,50,55,50,65,5,False,9,200,reckless,regenerator
620,Mienshao,Fighting,,65,125,60,95,60,105,5,False,14,355,reckless,regenerator
621,Druddigon,Dragon,,77,120,90,60,90,48,5,False,16,1390,mold-breaker,sheer-force
622,Golett,Ground,Ghost,59,74,50,35,50,35,5,False,10,920,no-guard,klutz
623,Golurk,Ground,Ghost,89,124,80,55,80,55,5,False,28,3300,no-guard,klutz
624,Pawniard,Dark,Steel,45,85,70,40,40,60,5,False,5,102,pressure,inner-focus
625,Bisharp,Dark,Steel,65,125,100,60,70,70,5,False,16,700,pressure,inner-focus
626,Bouffalant,Normal,,95,110,95,40,95,55,5,False,16,946,soundproof,sap-sipper
627,Rufflet,Normal,Flying,70,83,50,37,50,60,5,False,5,105,hustle,sheer-force
628,Braviary,Normal,Flying,100,123,75,57,75,80,5,False,15,410,defiant,sheer-force
629,Vullaby,Dark,Flying,70,55,75,45,65,60,5,False,5,90,weak-armor,overcoat
630,Mandibuzz,Dark,Flying,110,65,105,55,95,80,5,False,12,395,weak-armor,overcoat
631,Heatmor,Fire,,85,97,66,105,66,65,5,False,14,580,white-smoke,flash-fire
632,Durant,Bug,Steel,58,109,112,48,48,109,5,False,3,330,truant,hustle
633,Deino,Dark,Dragon,52,65,50,45,50,38,5,False,8,173,hustle,
634,Zweilous,Dark,Dragon,72,85,70,65,70,58,5,False,14,500,hustle,
635,Hydreigon,Dark,Dragon,92,105,90,125,90,98,5,False,18,1600,levitate,
636,Larvesta,Bug,Fire,55,85,55,50,55,60,5,False,11,288,swarm,flame-body
637,Volcarona,Bug,Fire,85,60,65,135,105,100,5,False,16,460,swarm,flame-body
638,Cobalion,Steel,Fighting,91,90,129,90,72,108,5,True,21,2500,justified,
639,Terrakion,Rock,Fighting,91,129,90,72,90,108,5,True,19,2600,justified,
640,Virizion,Grass,Fighting,91,90,72,90,129,108,5,True,20,2000,justified,
641,TornadusIncarnate Forme,Flying,,79,115,70,125,80,111,5,True,15,630,defiant,prankster
642,ThundurusIncarnate Forme,Electric,Flying,79,115,70,125,80,111,5,True,15,610,defiant,prankster
643,Reshiram,Dragon,Fire,100,120,100,150,120,90,5,True,32,3300,turboblaze,
644,Zekrom,Dragon,Electric,100,150,120,120,100,90,5,True,29,3450,teravolt,
645,LandorusIncarnate Forme,Ground,Flying,89,125,90,115,80,101,5,True,15,680,sheer-force,sand-force
646,Kyurem,Dragon,Ice,125,130,90,130,90,95,5,True,30,3250,pressure,
647,KeldeoOrdinary Forme,Water,Fighting,91,72,90,129,90,108,5,False,14,485,justified,
648,MeloettaAria Forme,Normal,Psychic,100,77,77,128,128,90,5,False,6,65,serene-grace,
649,Genesect,Bug,Steel,71,120,95,120,95,99,5,False,15,825,download,
650,Chespin,Grass,,56,61,65,48,45,38,6,False,4,90,bulletproof,overgrow
651,Quilladin,Grass,,61,78,95,56,58,57,6,False,7,290,bulletproof,overgrow
652,Chesnaught,Grass,Fighting,88,107,122,74,75,64,6,False,16,900,bulletproof,overgrow
653,Fennekin,Fire,,40,45,40,62,60,60,6,False,4,94,magician,blaze
654,Braixen,Fire,,59,59,58,90,70,73,6,False,10,145,magician,blaze
655,Delphox,Fire,Psychic,75,69,72,114,100,104,6,False,15,390,magician,blaze
656,Froakie,Water,,41,56,40,62,44,71,6,False,3,70,protean,torrent
657,Frogadier,Water,,54,63,52,83,56,97,6,False,6,109,protean,torrent
658,Greninja,Water,Dark,72,95,67,103,71,122,6,False,15,400,protean,torrent
659,Bunnelby,Normal,,38,36,38,32,36,57,6,False,4,50,huge-power,cheek-pouch
660,Diggersby,Normal,Ground,85,56,77,50,77,78,6,False,10,424,huge-power,cheek-pouch
661,Fletchling,Normal,Flying,45,50,43,40,38,62,6,False,3,17,gale-wings,big-pecks
662,Fletchinder,Fire,Flying,62,73,55,56,52,84,6,False,7,160,gale-wings,flame-body
663,Talonflame,Fire,Flying,78,81,71,74,69,126,6,False,12,245,gale-wings,flame-body
664,Scatterbug,Bug,,38,35,40,27,25,35,6,False,3,25,friend-guard,compound-eyes
665,Spewpa,Bug,,45,22,60,27,30,29,6,False,3,84,friend-guard,shed-skin
666,Vivillon,Bug,Flying,80,52,50,90,50,89,6,False,12,170,friend-guard,compound-eyes
667,Litleo,Fire,Normal,62,50,58,73,54,72,6,False,6,135,moxie,unnerve
668,Pyroar,Fire,Normal,86,68,72,109,66,106,6,False,15,815,moxie,unnerve
669,Flabébé,Fairy,,44,38,39,61,79,42,6,False,1,1,symbiosis,flower-veil
670,Floette,Fairy,,54,45,47,75,98,52,6,False,2,9,symbiosis,flower-veil
671,Florges,Fairy,,78,65,68,112,154,75,6,False,11,100,symbiosis,flower-veil
672,Skiddo,Grass,,66,65,48,62,57,52,6,False,9,310,grass-pelt,sap-sipper
673,Gogoat,Grass,,123,100,62,97,81,68,6,False,17,910,grass-pelt,sap-sipper
674,Pancham,Fighting,,67,82,62,46,48,43,6,False,6,80,scrappy,mold-breaker
675,Pangoro,Fighting,Dark,95,124,78,69,71,58,6,False,21,1360,scrappy,mold-breaker
676,Furfrou,Normal,,75,80,60,65,90,102,6,False,12,280,fur-coat,
677,Espurr,Psychic,,62,48,54,63,60,68,6,False,3,35,own-tempo,infiltrator
678,MeowsticMale,Psychic,,74,48,76,83,81,104,6,False,6,85,prankster,infiltrator
679,Honedge,Steel,Ghost,45,80,100,35,37,28,6,False,8,20,no-guard,
680,Doublade,Steel,Ghost,59,110,150,45,49,35,6,False,8,45,no-guard,
681,AegislashBlade Forme,Steel,Ghost,60,150,50,150,50,60,6,False,17,530,stance-change,
682,Spritzee,Fairy,,78,52,60,63,65,23,6,False,2,5,aroma-veil,healer
683,Aromatisse,Fairy,,101,72,72,99,89,29,6,False,8,155,aroma-veil,healer
684,Swirlix,Fairy,,62,48,66,59,57,49,6,False,4,35,unburden,sweet-veil
685,Slurpuff,Fairy,,82,80,86,85,75,72,6,False,8,50,unburden,sweet-veil
686,Inkay,Dark,Psychic,53,54,53,37,46,45,6,False,4,35,infiltrator,suction-cups
687,Malamar,Dark,Psychic,86,92,88,68,75,73,6,False,15,470,infiltrator,suction-cups
688,Binacle,Rock,Water,42,52,67,39,56,50,6,False,5,310,pickpocket,sniper
689,Barbaracle,Rock,Water,72,105,115,54,86,68,6,False,13,960,pickpocket,sniper
690,Skrelp,Poison,Water,50,60,60,60,60,30,6,False,5,73,adaptability,poison-touch
691,Dragalge,Poison,Dragon,65,75,90,97,123,44,6,False,18,815,adaptability,poison-touch
692,Clauncher,Water,,50,53,62,58,63,44,6,False,5,83,mega-launcher,
693,Clawitzer,Water,,71,73,88,120,89,59,6,False,13,353,mega-launcher,
694,Helioptile,Electric,Normal,44,38,33,61,43,70,6,False,5,60,solar-power,sand-veil
695,Heliolisk,Electric,Normal,62,55,52,109,94,109,6,False,10,210,solar-power,sand-veil
696,Tyrunt,Rock,Dragon,58,89,77,45,45,48,6,False,8,260,sturdy,strong-jaw
697,Tyrantrum,Rock,Dragon,82,121,119,69,59,71,6,False,25,2700,rock-head,strong-jaw
698,Amaura,Rock,Ice,77,59,50,67,63,46,6,False,13,252,snow-warning,refrigerate
699,Aurorus,Rock,Ice,123,77,72,99,92,58,6,False,27,2250,snow-warning,refrigerate
700,Sylveon,Fairy,,95,65,65,110,130,60,6,False,10,235,pixilate,cute-charm
701,Hawlucha,Fighting,Flying,78,92,75,74,63,118,6,False,8,215,mold-breaker,unburden
702,Dedenne,Electric,Fairy,67,58,57,81,67,101,6,False,2,22,plus,pickup
703,Carbink,Rock,Fairy,50,50,150,50,150,50,6,False,3,57,sturdy,clear-body
704,Goomy,Dragon,,45,50,35,55,75,40,6,False,3,28,gooey,hydration
705,Sliggoo,Dragon,,68,75,53,83,113,60,6,False,8,175,gooey,hydration
706,Goodra,Dragon,,90,100,70,110,150,80,6,False,20,1505,gooey,hydration
707,Klefki,Steel,Fairy,57,80,91,80,87,75,6,False,2,30,magician,prankster
708,Phantump,Ghost,Grass,43,70,48,50,60,38,6,False,4,70,harvest,frisk
709,Trevenant,Ghost,Grass,85,110,76,65,82,56,6,False,15,710,harvest,frisk
710,PumpkabooAverage Size,Ghost,Grass,49,66,70,44,55,51,6,False,4,50,insomnia,frisk
711,GourgeistAverage Size,Ghost,Grass,65,90,122,58,75,84,6,False,9,125,insomnia,frisk
712,Bergmite,Ice,,55,69,85,32,35,28,6,False,10,995,sturdy,ice-body
713,Avalugg,Ice,,95,117,184,44,46,28,6,False,20,5050,sturdy,ice-body
714,Noibat,Flying,Dragon,40,30,35,45,40,55,6,False,5,80,telepathy,infiltrator
715,Noivern,Flying,Dragon,85,70,80,97,80,123,6,False,15,850,telepathy,infiltrator
716,Xerneas,Fairy,,126,131,95,131,98,99,6,True,30,2150,fairy-aura,
717,Yveltal,Dark,Flying,126,131,95,131,98,99,6,True,58,2030,dark-aura,
718,Zygarde50% Forme,Dragon,Ground,108,100,121,81,95,95,6,True,50,3050,aura-break,
719,Diancie,Rock,Fairy,50,100,150,100,150,50,6,True,7,88,clear-body,
720,HoopaHoopa Confined,Psychic,Ghost,80,110,60,150,130,70,6,True,5,90,magician,
721,Volcanion,Fire,Water,80,110,120,130,90,70,6,True,17,1950,water-absorb,
